…
If its the former, there is some useful info found in the cffdrs package
that describe the data requirements of the FWI System There is also a
FWI test dataset ‘test_fwi’ showing the format of these inputs that is
presented below. In the pilot test below, we generated the five raster
predictors that are required inputs in the Wotton standjust CFFDRS
model. These rasters were derived for the Peachland watershed area for
the 2021 fire season period up until June 30th of that year.

``` r
library(cffdrs)
print(as_tibble(test_fwi), n = 10)
```

    ## # A tibble: 48 × 9
    ##     long   lat    yr   mon   day  temp    rh    ws  prec
    ##    <int> <int> <int> <int> <int> <dbl> <int> <int> <dbl>
    ##  1  -100    40  1985     4    13  17      42    25   0  
    ##  2  -100    40  1985     4    14  20      21    25   2.4
    ##  3  -100    40  1985     4    15   8.5    40    17   0  
    ##  4  -100    40  1985     4    16   6.5    25     6   0  
    ##  5  -100    40  1985     4    17  13      34    24   0  
    ##  6  -100    40  1985     4    18   6      40    22   0.4
    ##  7  -100    40  1985     4    19   5.5    52     6   0  
    ##  8  -100    40  1985     4    20   8.5    46    16   0  
    ##  9  -100    40  1985     4    21   9.5    54    20   0  
    ## 10  -100    40  1985     4    22   7      93    14   9  
    ## # … with 38 more rows
…
