…
# 2 Import VRI Data

The VRI dataset was downloaded from imapBC as a shapefile.shp and
transformed into simple feature for processing oeprations using sf and
dplyr functions. For CFFDRS data requirements, we consulted the two
package-provied sample datasets ‘test_fwi’ and ‘test_fpb’ presented
below:

``` r
library(cffdrs)
print(as_tibble(test_fwi), n = 10)
```

    ## # A tibble: 48 × 9
    ##     long   lat    yr   mon   day  temp    rh    ws  prec
    ##    <int> <int> <int> <int> <int> <dbl> <int> <int> <dbl>
    ##  1  -100    40  1985     4    13  17      42    25   0  
    ##  2  -100    40  1985     4    14  20      21    25   2.4
    ##  3  -100    40  1985     4    15   8.5    40    17   0  
    ##  4  -100    40  1985     4    16   6.5    25     6   0  
    ##  5  -100    40  1985     4    17  13      34    24   0  
    ##  6  -100    40  1985     4    18   6      40    22   0.4
    ##  7  -100    40  1985     4    19   5.5    52     6   0  
    ##  8  -100    40  1985     4    20   8.5    46    16   0  
    ##  9  -100    40  1985     4    21   9.5    54    20   0  
    ## 10  -100    40  1985     4    22   7      93    14   9  
    ## # … with 38 more rows

``` r
print(as_tibble(test_fbp), n = 10)
```

    ## # A tibble: 20 × 24
    ##       id FuelType   LAT  LONG   ELV  FFMC   BUI    WS    WD    GS    Dj    D0
    ##    <int> <fct>    <int> <int> <int> <dbl> <int> <dbl> <int> <int> <int> <int>
    ##  1     1 C-1         55   110    NA  90     130  20       0    15   182    NA
    ##  2     2 C2          50    90    NA  97     119  20.4     0    75   121    NA
    ##  3     3 C-3         55   110    NA  95      30  50       0     0   182    NA
    ##  4     4 C-4         55   105   200  85      82   0      NA    75   182    NA
    ##  5     5 c5          55   105    NA  88      56   3.4     0    23   152   145
    ##  6     6 C-6         55   105    NA  94      56  25       0    10   152   132
    ##  7     7 C-7         50   125    NA  88.8    15  22.1   270    15   152    NA
    ##  8     8 D-1         45   100    NA  98     100  50     270    35   152    NA
    ##  9     9 M-1         47    85    NA  90      40  15.5   180    25   182    NA
    ## 10    10 M-2         63   120   100  97     150  41     180    50   213    NA
    ## # … with 10 more rows, and 12 more variables: hr <dbl>, PC <int>, PDF <int>,
    ## #   GFL <dbl>, cc <int>, theta <int>, Accel <int>, Aspect <int>, BUIEff <int>,
    ## #   CBH <lgl>, CFL <lgl>, ISI <int>
…
